
{
  "header": {
    "reportVersion": 1,
    "event": "Allocation failed - JavaScript heap out of memory",
    "trigger": "FatalError",
    "filename": "report.20200620.041317.13692.0.001.json",
    "dumpEventTime": "2020-06-20T04:13:17Z",
    "dumpEventTimeStamp": "1592601197346",
    "processId": 13692,
    "cwd": "C:\\Users\\Faizal Ardhi\\tugaskelassanbercode",
    "commandLine": [
      "node.exe",
      "array.js"
    ],
    "nodejsVersion": "v12.8.0",
    "wordSize": 64,
    "arch": "x64",
    "platform": "win32",
    "componentVersions": {
      "node": "12.8.0",
      "v8": "7.5.288.22-node.16",
      "uv": "1.30.1",
      "zlib": "1.2.11",
      "brotli": "1.0.7",
      "ares": "1.15.0",
      "modules": "72",
      "nghttp2": "1.39.1",
      "napi": "4",
      "llhttp": "1.1.4",
      "http_parser": "2.8.0",
      "openssl": "1.1.1c",
      "cldr": "35.1",
      "icu": "64.2",
      "tz": "2019a",
      "unicode": "12.1"
    },
    "release": {
      "name": "node",
      "headersUrl": "https://nodejs.org/download/release/v12.8.0/node-v12.8.0-headers.tar.gz",
      "sourceUrl": "https://nodejs.org/download/release/v12.8.0/node-v12.8.0.tar.gz",
      "libUrl": "https://nodejs.org/download/release/v12.8.0/win-x64/node.lib"
    },
    "osName": "Windows_NT",
    "osRelease": "10.0.18362",
    "osVersion": "Windows 10 Home Single Language",
    "osMachine": "x86_64",
    "cpus": [
      {
        "model": "AMD A12-9720P RADEON R7, 12 COMPUTE CORES 4C+8G",
        "speed": 2695,
        "user": 3310890,
        "nice": 0,
        "sys": 2556921,
        "idle": 27055781,
        "irq": 277562
      },
      {
        "model": "AMD A12-9720P RADEON R7, 12 COMPUTE CORES 4C+8G",
        "speed": 2695,
        "user": 3518281,
        "nice": 0,
        "sys": 1955718,
        "idle": 27449250,
        "irq": 49500
      },
      {
        "model": "AMD A12-9720P RADEON R7, 12 COMPUTE CORES 4C+8G",
        "speed": 2695,
        "user": 3454703,
        "nice": 0,
        "sys": 1561453,
        "idle": 27907093,
        "irq": 21437
      },
      {
        "model": "AMD A12-9720P RADEON R7, 12 COMPUTE CORES 4C+8G",
        "speed": 2695,
        "user": 2418609,
        "nice": 0,
        "sys": 1056750,
        "idle": 29447890,
        "irq": 11984
      }
    ],
    "networkInterfaces": [
      {
        "name": "Wi-Fi",
        "internal": false,
        "mac": "30:d1:6b:2b:15:ed",
        "address": "192.168.43.45",
        "netmask": "255.255.255.0",
        "family": "IPv4"
      },
      {
        "name": "Loopback Pseudo-Interface 1",
        "internal": true,
        "mac": "00:00:00:00:00:00",
        "address": "::1",
        "netmask": "ffff:ffff:ffff:ffff:ffff:ffff:ffff:ffff",
        "family": "IPv6",
        "scopeid": 0
      },
      {
        "name": "Loopback Pseudo-Interface 1",
        "internal": true,
        "mac": "00:00:00:00:00:00",
        "address": "127.0.0.1",
        "netmask": "255.0.0.0",
        "family": "IPv4"
      }
    ],
    "host": "LAPTOP-HLI625K1"
  },
  "javascriptStack": {
    "message": "No stack.",
    "stack": [
      "Unavailable."
    ]
  },
  "nativeStack": [
    {
      "pc": "0x00007ff642f36d99",
      "symbol": "std::basic_ostream<char,std::char_traits<char> >::operator<<+10873"
    },
    {
      "pc": "0x00007ff642f3b38c",
      "symbol": "std::basic_ostream<char,std::char_traits<char> >::operator<<+28780"
    },
    {
      "pc": "0x00007ff642f3a338",
      "symbol": "std::basic_ostream<char,std::char_traits<char> >::operator<<+24600"
    },
    {
      "pc": "0x00007ff643024f3b",
      "symbol": "v8::base::CPU::has_sse+37691"
    },
    {
      "pc": "0x00007ff64380bc1e",
      "symbol": "v8::Isolate::ReportExternalAllocationLimitReached+94"
    },
    {
      "pc": "0x00007ff6437f3f6a",
      "symbol": "v8::SharedArrayBuffer::Externalize+842"
    },
    {
      "pc": "0x00007ff64368567c",
      "symbol": "v8::internal::Heap::EphemeronKeyWriteBarrierFromCode+1436"
    },
    {
      "pc": "0x00007ff64368d59f",
      "symbol": "v8::internal::Heap::OldGenerationSizeOfObjects+4879"
    },
    {
      "pc": "0x00007ff643683843",
      "symbol": "v8::internal::Heap::CollectGarbage+1235"
    },
    {
      "pc": "0x00007ff6436820d4",
      "symbol": "v8::internal::Heap::AddRetainedMap+2292"
    },
    {
      "pc": "0x00007ff6436a0bb5",
      "symbol": "v8::internal::Factory::NewFillerObject+53"
    },
    {
      "pc": "0x00007ff643456f2d",
      "symbol": "v8::internal::interpreter::JumpTableTargetOffsets::iterator::operator=+3757"
    },
    {
      "pc": "0x00007ff643c2b06d",
      "symbol": "v8::internal::SetupIsolateDelegate::SetupHeap+614605"
    },
    {
      "pc": "0x00007ff643c2bfa3",
      "symbol": "v8::internal::SetupIsolateDelegate::SetupHeap+618499"
    },
    {
      "pc": "0x00000250fca44964",
      "symbol": ""
    }
  ],
  "javascriptHeap": {
    "totalMemory": 2163838976,
    "totalCommittedMemory": 2163838976,
    "usedMemory": 2152028544,
    "availableMemory": 42486256,
    "memoryLimit": 2197815296,
    "heapSpaces": {
      "read_only_space": {
        "memorySize": 262144,
        "committedMemory": 262144,
        "capacity": 261832,
        "used": 31960,
        "available": 229872
      },
      "new_space": {
        "memorySize": 9437184,
        "committedMemory": 9437184,
        "capacity": 4712976,
        "used": 1438952,
        "available": 3274024
      },
      "old_space": {
        "memorySize": 2152869888,
        "committedMemory": 2152869888,
        "capacity": 2150237640,
        "used": 2149944576,
        "available": 293064
      },
      "code_space": {
        "memorySize": 425984,
        "committedMemory": 425984,
        "capacity": 154240,
        "used": 154240,
        "available": 0
      },
      "map_space": {
        "memorySize": 528384,
        "committedMemory": 528384,
        "capacity": 193200,
        "used": 193200,
        "available": 0
      },
      "large_object_space": {
        "memorySize": 266240,
        "committedMemory": 266240,
        "capacity": 262160,
        "used": 262160,
        "available": 0
      },
      "code_large_object_space": {
        "memorySize": 49152,
        "committedMemory": 49152,
        "capacity": 3456,
        "used": 3456,
        "available": 0
      },
      "new_large_object_space": {
        "memorySize": 0,
        "committedMemory": 0,
        "capacity": 4712976,
        "used": 0,
        "available": 4712976
      }
    }
  },
  "resourceUsage": {
    "userCpuSeconds": 72.375,
    "kernelCpuSeconds": 2.296,
    "cpuConsumptionPercent": 106.673,
    "maxRss": 2240700416,
    "pageFaults": {
      "IORequired": 611088,
      "IONotRequired": 0
    },
    "fsActivity": {
      "reads": 1,
      "writes": 6
    }
  },
  "libuv": [
  ],
  "environmentVariables": {
    "ACLOCAL_PATH": "/mingw64/share/aclocal:/usr/share/aclocal",
    "ALLUSERSPROFILE": "C:\\ProgramData",
    "AltiumPath": "C:\\Program Files (x86)\\Altium Designer Winter 09\\System",
    "ANDROID_HOME": "C:\\Users\\Faizal Ardhi\\AppData\\Local\\Android\\Sdk",
    "Aoaoao": "C:\\WINDOWS\\System32\\WindowsPowerShell\\v1.0\\",
    "APPDATA": "C:\\Users\\Faizal Ardhi\\AppData\\Roaming",
    "asl.log=Destination": "file",
    "ChocolateyInstall": "C:\\ProgramData\\chocolatey",
    "ChocolateyLastPathUpdate": "132097919253523930",
    "CLASSPATH": ".;",
    "COMMONPROGRAMFILES": "C:\\Program Files\\Common Files",
    "CommonProgramFiles(x86)": "C:\\Program Files (x86)\\Common Files",
    "CommonProgramW6432": "C:\\Program Files\\Common Files",
    "COMPOSE_CONVERT_WINDOWS_PATHS": "true",
    "COMPUTERNAME": "LAPTOP-HLI625K1",
    "COMSPEC": "C:\\WINDOWS\\system32\\cmd.exe",
    "C_EM64T_REDIST11": "C:\\Program Files (x86)\\Common Files\\Intel\\Shared Files\\cpp\\",
    "DISPLAY": "needs-to-be-defined",
    "DOCKER_CERT_PATH": "C:\\Users\\Faizal Ardhi\\.docker\\machine\\machines\\default",
    "DOCKER_HOST": "tcp://192.168.99.100:2376",
    "DOCKER_MACHINE_NAME": "default",
    "DOCKER_TLS_VERIFY": "1",
    "DOCKER_TOOLBOX_INSTALL_PATH": "C:\\Program Files\\Docker Toolbox",
    "DriverData": "C:\\Windows\\System32\\Drivers\\DriverData",
    "EXEPATH": "C:\\Program Files\\Git",
    "FITTERDIR": "C:\\Wincupl\\Wincupl\\Fitters",
    "FPS_BROWSER_APP_PROFILE_STRING": "Internet Explorer",
    "FPS_BROWSER_USER_PROFILE_STRING": "Default",
    "HOME": "C:\\Users\\Faizal Ardhi",
    "HOMEDRIVE": "C:",
    "HOMEPATH": "\\Users\\Faizal Ardhi",
    "HOSTNAME": "LAPTOP-HLI625K1",
    "INFOPATH": "/usr/local/info:/usr/share/info:/usr/info:/share/info:",
    "JAVA_HOME": "C:\\SDK\\jdk-13.0.2",
    "KMP_DUPLICATE_LIB_OK": "TRUE",
    "LANG": "en_US.UTF-8",
    "LOCALAPPDATA": "C:\\Users\\Faizal Ardhi\\AppData\\Local",
    "LOGONSERVER": "\\\\LAPTOP-HLI625K1",
    "MANPATH": "/mingw64/share/man:/usr/local/man:/usr/share/man:/usr/man:/share/man:",
    "MKL_SERIAL": "YES",
    "MSYSTEM": "MINGW64",
    "NO_PROXY": "192.168.99.100",
    "NUMBER_OF_PROCESSORS": "4",
    "OLDPWD": "/c/Users/Faizal Ardhi",
    "OneDrive": "C:\\Users\\Faizal Ardhi\\OneDrive",
    "OneDriveConsumer": "C:\\Users\\Faizal Ardhi\\OneDrive",
    "OS": "Windows_NT",
    "PATH": "C:\\Users\\Faizal Ardhi\\bin;C:\\Program Files\\Git\\mingw64\\bin;C:\\Program Files\\Git\\usr\\local\\bin;C:\\Program Files\\Git\\usr\\bin;C:\\Program Files\\Git\\usr\\bin;C:\\Program Files\\Git\\mingw64\\bin;C:\\Program Files\\Git\\usr\\bin;C:\\Users\\Faizal Ardhi\\bin;C:\\Program Files (x86)\\Common Files\\Intel\\Shared Files\\cpp\\bin\\Intel64;C:\\Python27;C:\\Python27\\Scripts;C:\\Program Files (x86)\\Common Files\\Oracle\\Java\\javapath;C:\\WINDOWS\\system32;C:\\WINDOWS;C:\\WINDOWS\\System32\\Wbem;C:\\WINDOWS\\System32\\WindowsPowerShell\\v1.0;C:\\WINDOWS\\System32\\OpenSSH;C:\\Program Files (x86)\\Java\\jdk-13.0.2\\bin;C:\\Program Files (x86)\\Altium Designer Winter 09\\System;C:\\Program Files\\Git\\cmd;C:\\Program Files (x86)\\QuickTime Alternative\\QTSystem;C:\\ProgramData\\chocolatey\\bin;C:\\Program Files\\nodejs;C:\\Program Files (x86)\\Yarn\\bin;C:\\SDK\\jdk1.8.0_211\\bin;C:\\xampp\\php;C:\\ProgramData\\ComposerSetup\\bin;C:\\SDK\\gradle\\bin;C:\\Wincupl\\WINCUPL\\EXE;C:\\Wincupl\\WINCUPL\\FITTERS;C:\\Users\\Faizal Ardhi\\AppData\\Local\\Microsoft\\WindowsApps;C:\\Users\\Faizal Ardhi\\AppData\\Local\\Programs\\Microsoft VS Code\\bin;C:\\Program Files\\Git\\usr\\bin\\vendor_perl;C:\\Program Files\\Git\\usr\\bin\\core_perl",
    "PATHEXT": ".COM;.EXE;.BAT;.CMD;.VBS;.VBE;.JS;.JSE;.WSF;.WSH;.MSC",
    "PKG_CONFIG_PATH": "/mingw64/lib/pkgconfig:/mingw64/share/pkgconfig",
    "PLINK_PROTOCOL": "ssh",
    "PRINTER": "Epson ME OFFICE 960FWD",
    "PROCESSOR_ARCHITECTURE": "AMD64",
    "PROCESSOR_IDENTIFIER": "AMD64 Family 21 Model 101 Stepping 1, AuthenticAMD",
    "PROCESSOR_LEVEL": "21",
    "PROCESSOR_REVISION": "6501",
    "ProgramData": "C:\\ProgramData",
    "PROGRAMFILES": "C:\\Program Files",
    "ProgramFiles(x86)": "C:\\Program Files (x86)",
    "ProgramW6432": "C:\\Program Files",
    "PS1": "\\[\\033]0;$TITLEPREFIX:${PWD//[^[:ascii:]]/?}\\007\\]\\n\\[\\033[32m\\]\\u@\\h \\[\\033[35m\\]$MSYSTEM \\[\\033[33m\\]\\w\\[\\033[36m\\]`__git_ps1`\\[\\033[0m\\]\\n$ ",
    "PSModulePath": "C:\\Program Files\\WindowsPowerShell\\Modules;C:\\WINDOWS\\system32\\WindowsPowerShell\\v1.0\\Modules",
    "PT7HOME": "C:\\Program Files\\Cisco Packet Tracer 7.1",
    "PUBLIC": "C:\\Users\\Public",
    "PWD": "/c/Users/Faizal Ardhi/tugaskelassanbercode",
    "QT_DEVICE_PIXEL_RATIO": "auto",
    "SESSIONNAME": "Console",
    "SHELL": "C:\\Program Files\\Git\\usr\\bin\\bash",
    "SHLVL": "1",
    "Sia": "C:\\WINDOWS\\System32\\WindowsPowerShell\\v1.0\\",
    "SSH_ASKPASS": "/mingw64/libexec/git-core/git-gui--askpass",
    "SYSTEMDRIVE": "C:",
    "SYSTEMROOT": "C:\\WINDOWS",
    "TEMP": "C:\\Users\\FAIZAL~1\\AppData\\Local\\Temp",
    "TERM": "xterm",
    "TMP": "C:\\Users\\FAIZAL~1\\AppData\\Local\\Temp",
    "TMPDIR": "C:\\Users\\FAIZAL~1\\AppData\\Local\\Temp",
    "USERDOMAIN": "LAPTOP-HLI625K1",
    "USERDOMAIN_ROAMINGPROFILE": "LAPTOP-HLI625K1",
    "USERNAME": "Faizal Ardhi",
    "USERPROFILE": "C:\\Users\\Faizal Ardhi",
    "VBOX_MSI_INSTALL_PATH": "C:\\Program Files\\Oracle\\VirtualBox\\",
    "WINDIR": "C:\\WINDOWS",
    "_": "/usr/bin/winpty"
  },
  "sharedObjects": [
    "C:\\Program Files\\nodejs\\node.exe",
    "C:\\WINDOWS\\SYSTEM32\\ntdll.dll",
    "C:\\WINDOWS\\System32\\KERNEL32.DLL",
    "C:\\WINDOWS\\System32\\KERNELBASE.dll",
    "C:\\WINDOWS\\System32\\WS2_32.dll",
    "C:\\WINDOWS\\System32\\RPCRT4.dll",
    "C:\\WINDOWS\\System32\\ADVAPI32.dll",
    "C:\\WINDOWS\\System32\\msvcrt.dll",
    "C:\\WINDOWS\\System32\\sechost.dll",
    "C:\\WINDOWS\\System32\\USER32.dll",
    "C:\\WINDOWS\\System32\\win32u.dll",
    "C:\\WINDOWS\\System32\\GDI32.dll",
    "C:\\WINDOWS\\System32\\gdi32full.dll",
    "C:\\WINDOWS\\System32\\msvcp_win.dll",
    "C:\\WINDOWS\\System32\\ucrtbase.dll",
    "C:\\WINDOWS\\System32\\PSAPI.DLL",
    "C:\\WINDOWS\\System32\\CRYPT32.dll",
    "C:\\WINDOWS\\System32\\MSASN1.dll",
    "C:\\WINDOWS\\System32\\bcrypt.dll",
    "C:\\WINDOWS\\SYSTEM32\\dbghelp.dll",
    "C:\\WINDOWS\\SYSTEM32\\IPHLPAPI.DLL",
    "C:\\WINDOWS\\SYSTEM32\\USERENV.dll",
    "C:\\WINDOWS\\System32\\profapi.dll",
    "C:\\WINDOWS\\SYSTEM32\\WINMM.dll",
    "C:\\WINDOWS\\SYSTEM32\\WINMMBASE.dll",
    "C:\\WINDOWS\\System32\\cfgmgr32.dll",
    "C:\\WINDOWS\\System32\\bcryptPrimitives.dll",
    "C:\\WINDOWS\\System32\\IMM32.DLL",
    "C:\\WINDOWS\\System32\\powrprof.dll",
    "C:\\WINDOWS\\System32\\UMPDC.dll",
    "C:\\WINDOWS\\system32\\uxtheme.dll",
    "C:\\WINDOWS\\System32\\combase.dll",
    "C:\\WINDOWS\\system32\\mswsock.dll",
    "C:\\WINDOWS\\System32\\kernel.appcore.dll",
    "C:\\WINDOWS\\System32\\NSI.dll",
    "C:\\WINDOWS\\SYSTEM32\\dhcpcsvc6.DLL",
    "C:\\WINDOWS\\SYSTEM32\\dhcpcsvc.DLL",
    "C:\\WINDOWS\\SYSTEM32\\DNSAPI.dll",
    "C:\\WINDOWS\\system32\\napinsp.dll",
    "C:\\WINDOWS\\system32\\pnrpnsp.dll",
    "C:\\WINDOWS\\System32\\winrnr.dll",
    "C:\\WINDOWS\\system32\\NLAapi.dll",
    "C:\\WINDOWS\\system32\\wshbth.dll"
  ]
}